
               214308
               426089
               642822
               858658
              1079442
              1292845
              1518230
              1740962
              1970091
              2192531
              2428393
              2660777
              2904747
              3153065
              3403178
              3669539
              3936612
              4232890
              4549245
              4914572
              5390945
              6265645
             13053534
             24769824
             34437772
             43525719
             58764433
             70471377
             79811514
             85512068
